Flow report for MateusAndDanielsAwesomeFirstGame
Mon Nov 27 16:30:02 2017
Quartus Prime Version 17.1.0 Build 590 10/25/2017 SJ Lite Edition


---------------------
; Table of Contents ;
---------------------
  1. Legal Notice
  2. Flow Summary
  3. Flow Settings
  4. Flow Non-Default Global Settings
  5. Flow Elapsed Time
  6. Flow OS Summary
  7. Flow Log
  8. Flow Messages
  9. Flow Suppressed Messages



----------------
; Legal Notice ;
----------------
Copyright (C) 2017  Intel Corporation. All rights reserved.
Your use of Intel Corporation's design tools, logic functions 
and other software and tools, and its AMPP partner logic 
functions, and any output files from any of the foregoing 
(including device programming or simulation files), and any 
associated documentation or information are expressly subject 
to the terms and conditions of the Intel Program License 
Subscription Agreement, the Intel Quartus Prime License Agreement,
the Intel FPGA IP License Agreement, or other applicable license
agreement, including, without limitation, that your use is for
the sole purpose of programming logic devices manufactured by
Intel and sold by Intel or its authorized distributors.  Please
refer to the applicable agreement for further details.



+-------------------------------------------------------------------------------+
; Flow Summary                                                                  ;
+---------------------------------+---------------------------------------------+
; Flow Status                     ; Successful - Mon Nov 27 16:30:02 2017       ;
; Quartus Prime Version           ; 17.1.0 Build 590 10/25/2017 SJ Lite Edition ;
; Revision Name                   ; MateusAndDanielsAwesomeFirstGame            ;
; Top-level Entity Name           ; awesomeGame                                 ;
; Family                          ; Cyclone V                                   ;
; Device                          ; 5CSEMA5F31C6                                ;
; Timing Models                   ; Final                                       ;
; Logic utilization (in ALMs)     ; 86 / 32,070 ( < 1 % )                       ;
; Total registers                 ; 72                                          ;
; Total pins                      ; 67 / 457 ( 15 % )                           ;
; Total virtual pins              ; 0                                           ;
; Total block memory bits         ; 0 / 4,065,280 ( 0 % )                       ;
; Total DSP Blocks                ; 0 / 87 ( 0 % )                              ;
; Total HSSI RX PCSs              ; 0                                           ;
; Total HSSI PMA RX Deserializers ; 0                                           ;
; Total HSSI TX PCSs              ; 0                                           ;
; Total HSSI PMA TX Serializers   ; 0                                           ;
; Total PLLs                      ; 0 / 6 ( 0 % )                               ;
; Total DLLs                      ; 0 / 4 ( 0 % )                               ;
+---------------------------------+---------------------------------------------+


+------------------------------------------------------+
; Flow Settings                                        ;
+-------------------+----------------------------------+
; Option            ; Setting                          ;
+-------------------+----------------------------------+
; Start date & time ; 11/27/2017 16:27:39              ;
; Main task         ; Compilation                      ;
; Revision Name     ; MateusAndDanielsAwesomeFirstGame ;
+-------------------+----------------------------------+


+------------------------------------------------------------------------------------------------------------------------------------------------+
; Flow Non-Default Global Settings                                                                                                               ;
+-------------------------------------+----------------------------------------+----------------------------------+-------------+----------------+
; Assignment Name                     ; Value                                  ; Default Value                    ; Entity Name ; Section Id     ;
+-------------------------------------+----------------------------------------+----------------------------------+-------------+----------------+
; COMPILER_SIGNATURE_ID               ; 187379455246701.151181085814160        ; --                               ; --          ; --             ;
; EDA_OUTPUT_DATA_FORMAT              ; Vhdl                                   ; --                               ; --          ; eda_simulation ;
; EDA_SIMULATION_TOOL                 ; ModelSim-Altera (VHDL)                 ; <None>                           ; --          ; --             ;
; MAX_CORE_JUNCTION_TEMP              ; 85                                     ; --                               ; --          ; --             ;
; MIN_CORE_JUNCTION_TEMP              ; 0                                      ; --                               ; --          ; --             ;
; PARTITION_COLOR                     ; -- (Not supported for targeted family) ; --                               ; awesomeGame ; Top            ;
; PARTITION_COLOR                     ; -- (Not supported for targeted family) ; --                               ; ghrd_top    ; Top            ;
; PARTITION_FITTER_PRESERVATION_LEVEL ; -- (Not supported for targeted family) ; --                               ; awesomeGame ; Top            ;
; PARTITION_FITTER_PRESERVATION_LEVEL ; -- (Not supported for targeted family) ; --                               ; ghrd_top    ; Top            ;
; PARTITION_NETLIST_TYPE              ; -- (Not supported for targeted family) ; --                               ; awesomeGame ; Top            ;
; PARTITION_NETLIST_TYPE              ; -- (Not supported for targeted family) ; --                               ; ghrd_top    ; Top            ;
; PROJECT_OUTPUT_DIRECTORY            ; output_files                           ; --                               ; --          ; --             ;
; TOP_LEVEL_ENTITY                    ; awesomeGame                            ; MateusAndDanielsAwesomeFirstGame ; --          ; --             ;
+-------------------------------------+----------------------------------------+----------------------------------+-------------+----------------+


+-------------------------------------------------------------------------------------------------------------------------------+
; Flow Elapsed Time                                                                                                             ;
+---------------------------+--------------+-------------------------+---------------------+------------------------------------+
; Module Name               ; Elapsed Time ; Average Processors Used ; Peak Virtual Memory ; Total CPU Time (on all processors) ;
+---------------------------+--------------+-------------------------+---------------------+------------------------------------+
; Analysis & Synthesis      ; 00:00:17     ; 1.0                     ; 743 MB              ; 00:00:33                           ;
; Fitter                    ; 00:01:39     ; 1.0                     ; 2163 MB             ; 00:01:46                           ;
; Assembler                 ; 00:00:10     ; 1.0                     ; 719 MB              ; 00:00:09                           ;
; TimeQuest Timing Analyzer ; 00:00:09     ; 1.1                     ; 1001 MB             ; 00:00:09                           ;
; EDA Netlist Writer        ; 00:00:01     ; 1.0                     ; 629 MB              ; 00:00:02                           ;
; Total                     ; 00:02:16     ; --                      ; --                  ; 00:02:39                           ;
+---------------------------+--------------+-------------------------+---------------------+------------------------------------+


+-----------------------------------------------------------------------------------------+
; Flow OS Summary                                                                         ;
+---------------------------+------------------+------------+------------+----------------+
; Module Name               ; Machine Hostname ; OS Name    ; OS Version ; Processor type ;
+---------------------------+------------------+------------+------------+----------------+
; Analysis & Synthesis      ; MateusNote       ; Windows 10 ; 10.0       ; x86_64         ;
; Fitter                    ; MateusNote       ; Windows 10 ; 10.0       ; x86_64         ;
; Assembler                 ; MateusNote       ; Windows 10 ; 10.0       ; x86_64         ;
; TimeQuest Timing Analyzer ; MateusNote       ; Windows 10 ; 10.0       ; x86_64         ;
; EDA Netlist Writer        ; MateusNote       ; Windows 10 ; 10.0       ; x86_64         ;
+---------------------------+------------------+------------+------------+----------------+


------------
; Flow Log ;
------------
quartus_map --read_settings_files=on --write_settings_files=off MateusAndDanielsAwesomeFirstGame -c MateusAndDanielsAwesomeFirstGame
quartus_fit --read_settings_files=off --write_settings_files=off MateusAndDanielsAwesomeFirstGame -c MateusAndDanielsAwesomeFirstGame
quartus_asm --read_settings_files=off --write_settings_files=off MateusAndDanielsAwesomeFirstGame -c MateusAndDanielsAwesomeFirstGame
quartus_sta MateusAndDanielsAwesomeFirstGame -c MateusAndDanielsAwesomeFirstGame
quartus_eda --read_settings_files=off --write_settings_files=off MateusAndDanielsAwesomeFirstGame -c MateusAndDanielsAwesomeFirstGame



